…
data_path <- "static/data/faa/historical"

data_files <- here(data_path) %>% dir(pattern = "xls", full.names = TRUE)

I also used dir to get a list of filenames instead of hardcoding them. This isn’t as common, but I think this is good practice, because if a file is renamed, deleted, added, etc. your script will then notice the change and not throw errors because of an invalid path. But also, most of my work uses data directories containing tens or hundreds of files with the same format and systematic naming, and starting with dir and set_names makes for a great pipeline into purrr::map_df to read them in and combine them. More on that in a future blog post.

Anyway, we have two Excel files containing three tables, because the 2001 file inexplicably stores two separate tables on the same sheet. (Note: don’t do this.) So for 2001’s data, we’ll have to use the range argument of read_excel to specify which parts of the sheet we want going into which object:

passengers_01 <- data_files[[1]] %>% 
    read_excel(range = "A8:F31") %>%
    clean_names()
passengers_01

## # A tibble: 23 x 6
##    year passenger change primary non_primary cutoff
##   <dbl>     <dbl>  <dbl>   <dbl>       <dbl>  <dbl>
## 1  1979 326264547  NA        304         312  32626
## 2  1980 310401357  -4.86     299         308  30997
## 3  1981 294851280  -5.01     282         285  29456
## 4  1982 309517088   4.97     276         285  30915
## 5  1983 339343448   9.64     273         284  33903
## # ... with 18 more rows

cargo_01 <- data_files[[1]] %>%
    read_excel(range = "A40:D56") %>%
    clean_names()
cargo_01

## # A tibble: 16 x 4
##    year  weight_lbs change airports
##   <dbl>       <dbl>  <dbl>    <dbl>
## 1  1986 51269064431  NA          68
## 2  1987 59729808640  16.6        81
## 3  1988 71911854035  20.4        82
## 4  1989 78582530612   9.28       84
## 5  1990 86210072453   9.71       85
## # ... with 11 more rows

The formatting of the 2001 tables looks fine without any extra cleanup. 2011 is a different story:

raw_11 <- data_files[[2]] %>% 
    read_excel() %>%
    clean_names() 
raw_11

## # A tibble: 32 x 12
##   calendar_year_f~ total_passengers percentage_chan~ large_hub_airpo~
##   <chr>                       <dbl>            <dbl>            <dbl>
## 1 2011/2013               726007934           0.0171               29
## 2 2010/2012               713776556           0.0226               29
## 3 2009/2011               698003028          -0.0522               29
## 4 2008/2010               736470443          -0.0354               29
## 5 2007/2009               763513050           0.0327               30
## # ... with 27 more rows, and 8 more variables: medium_hub_airports <dbl>,
## #   small_hub_airports <dbl>, non_hub_airports <dbl>,
## #   total_primary_airports <dbl>, non_hub_non_primary <dbl>,
## #   primary_cutoff <dbl>, x11 <lgl>, x12 <lgl>

Tidy

The 2011 data is somewhat untidy. The first column combines two columns, and we also have added two completely blank columns on the far right. We can easily drop those by defining a simple predicate function and using it in either purrr::keep or dplyr::select_if. (They do the same thing here, but I like keep because it’s shorter and it works on data in lists as well as dataframes.)

not_blank <- function(x) {
    any(!is.na(x))
}

kept_11 <- raw_11 %>% keep(not_blank)
kept_11

## # A tibble: 32 x 10
##   calendar_year_f~ total_passengers percentage_chan~ large_hub_airpo~
##   <chr>                       <dbl>            <dbl>            <dbl>
## 1 2011/2013               726007934           0.0171               29
## 2 2010/2012               713776556           0.0226               29
## 3 2009/2011               698003028          -0.0522               29
## 4 2008/2010               736470443          -0.0354               29
## 5 2007/2009               763513050           0.0327               30
## # ... with 27 more rows, and 6 more variables: medium_hub_airports <dbl>,
## #   small_hub_airports <dbl>, non_hub_airports <dbl>,
## #   total_primary_airports <dbl>, non_hub_non_primary <dbl>,
## #   primary_cutoff <dbl>

We also need to fix that leftmost column. This is where the tidyr package shines, specifically its separate function:

passengers_11 <- kept_11 %>% 
    separate(1, into = c("cy", "fy"), sep = "/", convert = TRUE)
passengers_11

## # A tibble: 32 x 11
##      cy    fy total_passengers percentage_chan~ large_hub_airpo~
##   <int> <int>            <dbl>            <dbl>            <dbl>
## 1  2011  2013        726007934           0.0171               29
## 2  2010  2012        713776556           0.0226               29
## 3  2009  2011        698003028          -0.0522               29
## 4  2008  2010        736470443          -0.0354               29
## 5  2007  2009        763513050           0.0327               30
## # ... with 27 more rows, and 6 more variables: medium_hub_airports <dbl>,
## #   small_hub_airports <dbl>, non_hub_airports <dbl>,
## #   total_primary_airports <dbl>, non_hub_non_primary <dbl>,
## #   primary_cutoff <dbl>
…
Consolidate

We now have some tidy-looking tables, but with a lot of extraneous information. Let’s just look at passenger counts for now, and make sure they match up in the overlapping years. We’ll make it easy by using the ability to rename columns within a select call, just like we do with SQL’s SELECT x AS y:

pass_01 <- passengers_01 %>% select(year, pass_01 = passenger)
pass_11 <- passengers_11 %>% select(year = cy, pass_11 = total_passengers)

pass_match <- pass_01 %>% 
    full_join(pass_11, by = "year") %>% 
    arrange(year) %>% 
    mutate(agree = pass_01 == pass_11)
pass_match

## # A tibble: 33 x 4
##    year   pass_01   pass_11 agree
##   <dbl>     <dbl>     <dbl> <lgl>
## 1  1979 326264547        NA NA   
## 2  1980 310401357 310401357 TRUE 
## 3  1981 294851280 294851280 TRUE 
## 4  1982 309517088 309517088 TRUE 
## 5  1983 339343448 339343448 TRUE 
## # ... with 28 more rows

I don’t see any FALSEs in there (just NAs where a year was in one table and not in the other), so all the years that appear in both tables match up! That makes it easy to chop this down to a final table using coalesce, which gets the first non-NA value from those listed, just like SQL’s COALESCE does. We’ll use it inside a transmute call, which works just like mutate + select, so we just keep the columns named in transmute:

passengers <- pass_match %>% 
    transmute(year = year,
              passengers = coalesce(pass_01, pass_11))
passengers

## # A tibble: 33 x 2
##    year passengers
##   <dbl>      <dbl>
## 1  1979  326264547
## 2  1980  310401357
## 3  1981  294851280
## 4  1982  309517088
## 5  1983  339343448
## # ... with 28 more rows
…
